﻿[
  {
    "outputFileName": "wwwroot/css/site.min.css",
    "inputFiles": [
      "node_modules/spectre.css/dist/spectre.css",
      "node_modules/spectre.css/dist/spectre-exp.css",
      "node_modules/spectre.css/dist/spectre-icons.css",
      "wwwroot/css/site.css"
    ]
  },
  {
    "outputFileName": "wwwroot/js/site.min.js",
    "inputFiles": [
    ],
    "minify": {
      "enabled": true,
      "renameLocals": true
    },
    "sourceMap": false
  }
]
